{
    "$schema": "https://schema.management.azure.com/schemas/2015-01-01/deploymentTemplate.json#",
    "contentVersion": "1.0.0.0",
    "parameters": {
        "containerGroupName": {
            "type": "string",
            "defaultValue": "ianphilgitlabgroup",
            "metadata": {
                "description": "Name of the ACI container group"
            }
        },
        "containerName": {
            "type": "string",
            "defaultValue": "ianphilgitlab",
            "metadata": {
                "description": "Name of the container"
            }
        },
        "storageAccountName": {
            "type": "string",
            "defaultValue": "ianphilgitlabsa",
            "metadata": {
                "description": "Name of the Azure File Storage Account"
            }
        },
        "storageAccountKey": {
            "type": "string",
            "metadata": {
                "description": "Azure File Storage Account Key"
            }
        }
    },
    "variables": {
        "imageName": "gitlab/gitlab-ce:latest",
        "portSSL": 443,
        "portHTTP": 80,
        "portSSH": 22,
        "memory": 8.0,
        "cpu": 4.0,
        "volumeMountsReadOnly": false,
        "volumeMountsDataName": "data",
        "volumeMountsDataPath": "/var/opt/gitlab",
        "volumeMountsLogsName": "logs",
        "volumeMountsLogsPath": "/var/log/gitlab",
        "volumeMountsConfigName": "config",
        "volumeMountsConfigPath": "/etc/gitlab"
    },
    "resources": [
        {
            "type": "Microsoft.ContainerInstance/containerGroups",
            "name": "[parameters('containerGroupName')]",
            "apiVersion": "2017-10-01-preview",
            "location": "[resourceGroup().location]",
            "properties": {
                "containers": [
                    {
                        "name": "[parameters('containerName')]",
                        "properties": {
                            "image": "[variables('imageName')]",
                            "ports": [
                                {
                                    "port": "[variables('portSSL')]"
                                },
                                {
                                    "port": "[variables('portHTTP')]"
                                },
                                {
                                    "port": "[variables('portSSH')]"
                                }
                            ],
                            "resources": {
                                "requests": {
                                    "memoryInGB": "[variables('memory')]",
                                    "cpu": "[variables('cpu')]"
                                },
                                "limits": {
                                    "memoryInGB": "[variables('memory')]",
                                    "cpu": "[variables('cpu')]"
                                }
                            },
                            "volumeMounts": [
                                {
                                    "name": "[variables('volumeMountsDataName')]",
                                    "mountPath": "[variables('volumeMountsDataPath')]",
                                    "readOnly": "[variables('volumeMountsReadOnly')]"
                                },
                                {
                                    "name": "[variables('volumeMountsLogsName')]",
                                    "mountPath": "[variables('volumeMountsLogsPath')]",
                                    "readOnly": "[variables('volumeMountsReadOnly')]"
                                },
                                {
                                    "name": "[variables('volumeMountsConfigName')]",
                                    "mountPath": "[variables('volumeMountsConfigPath')]",
                                    "readOnly": "[variables('volumeMountsReadOnly')]"
                                }
                            ]
                        }
                    }
                ],
                "restartPolicy": "Always",
                "osType": "Linux",
                "ipAddress": {
                    "type": "Public",
                    "ports": [
                        {
                            "port": "[variables('portSSL')]"
                        },
                        {
                            "port": "[variables('portHTTP')]"
                        },
                        {
                            "port": "[variables('portSSH')]"
                        }
                    ]
                },
                "volumes": [
                    {
                        "name": "[variables('volumeMountsDataName')]",
                        "azureFile": {
                            "shareName": "[variables('volumeMountsDataName')]",
                            "readOnly": "[variables('volumeMountsReadOnly')]",
                            "storageAccountName": "[parameters('storageAccountName')]",
                            "storageAccountKey": "[parameters('storageAccountKey')]"
                        }
                    },
                    {
                        "name": "[variables('volumeMountsLogsName')]",
                        "azureFile": {
                            "shareName": "[variables('volumeMountsLogsName')]",
                            "readOnly": "[variables('volumeMountsReadOnly')]",
                            "storageAccountName": "[parameters('storageAccountName')]",
                            "storageAccountKey": "[parameters('storageAccountKey')]"
                        }
                    },
                    {
                        "name": "[variables('volumeMountsConfigName')]",
                        "azureFile": {
                            "shareName": "[variables('volumeMountsConfigName')]",
                            "readOnly": "[variables('volumeMountsReadOnly')]",
                            "storageAccountName": "[parameters('storageAccountName')]",
                            "storageAccountKey": "[parameters('storageAccountKey')]"
                        }
                    }
                ]
            }
        }
    ],
    "outputs": {
        "containerIPv4Address":{
            "type": "string",
            "value": "[reference(resourceId('Microsoft.ContainerInstance/containerGroups/', parameters('containerGroupName'))).ipAddress.ip]"
        }
    }
}